<svg width="50" height="50" viewBox="0 0 50 50" version="1.1" xmlns="http://www.w3.org/2000/svg" xmlns:xlink="http://www.w3.org/1999/xlink">
<title>09 customer service</title>
<desc>Created using Figma</desc>
<g id="Canvas" transform="translate(-328 670)">
<g id="09 customer service">
<g id="Group">
<g id="Group">
<g id="Shape">
<use xlink:href="#path0_stroke" transform="translate(334.419 -643.452)" fill="#363F40"/>
</g>
<g id="Shape">
<use xlink:href="#path1_stroke" transform="translate(357.645 -643.452)" fill="#363F40"/>
</g>
<g id="Shape">
<use xlink:href="#path2_stroke" transform="translate(346.032 -658.935)" fill="#363F40"/>
</g>
<g id="Shape">
<use xlink:href="#path3_stroke" transform="translate(346.032 -637.258)" fill="#363F40"/>
</g>
<g id="Shape">
<use xlink:href="#path4_stroke" transform="translate(353 -627.968)" fill="#363F40"/>
</g>
<g id="Shape">
<use xlink:href="#path4_stroke" transform="translate(353 -631.065)" fill="#363F40"/>
</g>
<g id="Shape">
<use xlink:href="#path4_stroke" transform="translate(353 -624.871)" fill="#363F40"/>
</g>
<g id="Shape">
<use xlink:href="#path5_stroke" transform="translate(356.871 -628.742)" fill="#363F40"/>
</g>
<g id="Shape">
<use xlink:href="#path6_stroke" transform="translate(342.935 -664.355)" fill="#363F40"/>
</g>
</g>
<g id="Shape">
<use xlink:href="#path7_stroke" transform="translate(340.613 -656.613)" fill="#363F40"/>
</g>
<g id="Shape">
<use xlink:href="#path8_stroke" transform="translate(360.742 -656.613)" fill="#363F40"/>
</g>
<g id="Shape">
<use xlink:href="#path9_stroke" transform="translate(352.226 -648.871)" fill="#363F40"/>
</g>
</g>
<g id="Oval">
<use xlink:href="#path10_stroke" transform="translate(329 -669)" fill="#363F40"/>
</g>
</g>
</g>
<defs>
<path id="path0_stroke" d="M 11.6129 6.19355L 11.7503 6.67431C 11.7732 6.66777 11.7956 6.65959 11.8173 6.64985L 11.6129 6.19355ZM 6.19355 7.74194L 6.29161 8.23223C 6.30483 8.22958 6.31794 8.2264 6.33091 8.2227L 6.19355 7.74194ZM 13.4355 0L 13.4355 3.87097L 14.4355 3.87097L 14.4355 0L 13.4355 0ZM 13.4355 3.87097C 13.4355 4.03794 13.3589 4.23677 13.179 4.46632C 12.9931 4.70738 12.7544 4.91063 12.481 5.10803C 12.2105 5.30454 11.9483 5.45762 11.7382 5.57098C 11.6357 5.62638 11.5543 5.66732 11.4936 5.69688C 11.4645 5.71109 11.4434 5.72106 11.4276 5.72841C 11.4203 5.73182 11.4156 5.734 11.4118 5.73575C 11.4102 5.73649 11.4093 5.73686 11.4085 5.73724C 11.4082 5.73736 11.4082 5.73736 11.4081 5.73743C 11.4081 5.73743 11.4082 5.73738 11.4082 5.73738C 11.4082 5.73737 11.4083 5.73733 11.4083 5.73733C 11.4084 5.73729 11.4085 5.73725 11.6129 6.19355C 11.8173 6.64985 11.8174 6.6498 11.8176 6.64975C 11.8176 6.64972 11.8177 6.64966 11.8178 6.64962C 11.818 6.64956 11.8183 6.64941 11.8186 6.64929C 11.819 6.6491 11.8198 6.64872 11.8207 6.64834C 11.8221 6.64771 11.8246 6.64657 11.8274 6.6453C 11.8323 6.64303 11.8406 6.63921 11.8503 6.63469C 11.8686 6.62617 11.8974 6.61253 11.9318 6.59579C 11.9981 6.56343 12.0981 6.51307 12.2134 6.45089C 12.4388 6.32909 12.7572 6.14191 13.0674 5.91803C 13.3746 5.69505 13.7165 5.39778 13.9661 5.08316C 14.2217 4.75703 14.4355 4.34503 14.4355 3.87097L 13.4355 3.87097ZM 11.4755 5.71279L 6.05619 7.26117L 6.33091 8.2227L 11.7503 6.67431L 11.4755 5.71279ZM 6.09549 7.25165C 3.99648 7.67145 2.35619 9.12757 1.26347 10.419C 0.714776 11.0685 0.282472 11.7032 -0.00125558 12.1594C -0.144956 12.3907 -0.25721 12.5863 -0.330205 12.7182C -0.367511 12.7857 -0.396922 12.8408 -0.415695 12.8766C -0.425459 12.8952 -0.433374 12.9105 -0.438264 12.92C -0.440891 12.9252 -0.443137 12.9296 -0.44445 12.9322C -0.445195 12.9337 -0.445888 12.935 -0.44626 12.9358C -0.44649 12.9362 -0.446729 12.9367 -0.446844 12.9369C -0.446924 12.9371 -0.447016 12.9373 -0.447056 12.9374C -0.447139 12.9375 -0.447214 12.9377 0 13.1613C 0.447214 13.3849 0.447157 13.385 0.447109 13.3851C 0.447105 13.3851 0.447065 13.3852 0.447057 13.3852C 0.44703 13.3853 0.447057 13.3852 0.44711 13.3851C 0.447304 13.3847 0.44746 13.3844 0.447846 13.3836C 0.448795 13.3818 0.44994 13.3795 0.451826 13.3758C 0.455961 13.3678 0.46156 13.3569 0.469753 13.3413C 0.486892 13.3086 0.511161 13.2632 0.544922 13.2021C 0.614064 13.0771 0.713504 12.9036 0.84803 12.6874C 1.12075 12.2484 1.51103 11.6734 2.02685 11.0649C 3.06317 9.84018 4.51964 8.58662 6.29161 8.23223L 6.09549 7.25165Z"/>
<path id="path1_stroke" d="M 2.32258 6.19355L 2.11816 6.64985C 2.1399 6.65959 2.16231 6.66777 2.18522 6.67431L 2.32258 6.19355ZM 7.74194 7.74194L 7.60457 8.2227C 7.61754 8.2264 7.63065 8.22958 7.64388 8.23223L 7.74194 7.74194ZM -0.5 0L -0.5 3.87097L 0.5 3.87097L 0.5 0L -0.5 0ZM -0.5 3.87097C -0.5 4.34503 -0.286226 4.75703 -0.0306409 5.08316C 0.218934 5.39778 0.560853 5.69505 0.868072 5.91803C 1.17829 6.14191 1.49671 6.32909 1.7221 6.45089C 1.83736 6.51307 1.93736 6.56343 2.00371 6.59579C 2.03808 6.61253 2.0669 6.62617 2.08515 6.63469C 2.09485 6.63921 2.10315 6.64303 2.10813 6.6453C 2.1109 6.64657 2.11342 6.64771 2.11481 6.64834C 2.11565 6.64872 2.11649 6.6491 2.11691 6.64929C 2.11719 6.64941 2.1175 6.64956 2.11764 6.64962C 2.11774 6.64966 2.11787 6.64972 2.11793 6.64975C 2.11805 6.6498 2.11816 6.64985 2.32258 6.19355C 2.527 5.73725 2.5271 5.73729 2.52718 5.73733C 2.5272 5.73733 2.52728 5.73737 2.52731 5.73738C 2.52731 5.73738 2.52741 5.73743 2.52741 5.73743C 2.52726 5.73736 2.52726 5.73736 2.52698 5.73724C 2.52615 5.73686 2.52533 5.73649 2.52371 5.73575C 2.51989 5.734 2.51515 5.73182 2.50784 5.72841C 2.49207 5.72106 2.47099 5.71109 2.44186 5.69688C 2.38119 5.66732 2.29973 5.62638 2.19725 5.57098C 1.98716 5.45762 1.72494 5.30454 1.45451 5.10803C 1.18108 4.91063 0.942356 4.70738 0.756447 4.46632C 0.576549 4.23677 0.5 4.03794 0.5 3.87097L -0.5 3.87097ZM 2.18522 6.67431L 7.60457 8.2227L 7.8793 7.26117L 2.45994 5.71279L 2.18522 6.67431ZM 7.64388 8.23223C 9.41584 8.58662 10.8723 9.84018 11.9086 11.0649C 12.4245 11.6734 12.8147 12.2484 13.0875 12.6874C 13.222 12.9036 13.3214 13.0771 13.3906 13.2021C 13.4243 13.2632 13.4486 13.3086 13.4657 13.3413C 13.4739 13.3569 13.4795 13.3678 13.4837 13.3758C 13.4855 13.3795 13.4867 13.3818 13.4876 13.3836C 13.488 13.3844 13.4882 13.3847 13.4884 13.3851C 13.4884 13.3852 13.4885 13.3853 13.4884 13.3852C 13.4884 13.3852 13.4884 13.3851 13.4884 13.3851C 13.4883 13.385 13.4883 13.3849 13.9355 13.1613C 14.3827 12.9377 14.3826 12.9375 14.3825 12.9374C 14.3825 12.9373 14.3824 12.9371 14.3823 12.9369C 14.3822 12.9367 14.382 12.9362 14.3817 12.9358C 14.3814 12.935 14.3807 12.9337 14.3799 12.9322C 14.3786 12.9296 14.3764 12.9252 14.3737 12.92C 14.3689 12.9105 14.3609 12.8952 14.3512 12.8766C 14.3324 12.8408 14.303 12.7857 14.2657 12.7182C 14.1927 12.5863 14.0804 12.3907 13.9367 12.1594C 13.653 11.7032 13.2207 11.0685 12.672 10.419C 11.5793 9.12757 9.939 7.67145 7.83999 7.25165L 7.64388 8.23223Z"/>
<path id="path2_stroke" d="M 6.96774 2.32258L 6.74414 2.76979C 6.81356 2.80451 6.89012 2.82258 6.96774 2.82258L 6.96774 2.32258ZM 2.32258 0L 2.54619 -0.447214C 2.39119 -0.524711 2.20712 -0.516429 2.05972 -0.425325C 1.91231 -0.334222 1.82258 -0.173289 1.82258 0L 2.32258 0ZM 2.32258 2.32258L 2.32258 2.82258C 2.59872 2.82258 2.82258 2.59872 2.82258 2.32258L 2.32258 2.32258ZM -0.5 4.64516L -0.5 6.96774L 0.5 6.96774L 0.5 4.64516L -0.5 4.64516ZM -0.5 6.96774C -0.5 9.80679 0.0915699 12.6095 1.30874 14.7213C 2.53292 16.8452 4.4192 18.3065 6.96774 18.3065L 6.96774 17.3065C 4.87112 17.3065 3.27353 16.1277 2.17513 14.2219C 1.06972 12.304 0.5 9.6874 0.5 6.96774L -0.5 6.96774ZM 6.96774 18.3065C 9.51628 18.3065 11.4026 16.8452 12.6267 14.7213C 13.8439 12.6095 14.4355 9.80679 14.4355 6.96774L 13.4355 6.96774C 13.4355 9.6874 12.8658 12.304 11.7604 14.2219C 10.662 16.1277 9.06436 17.3065 6.96774 17.3065L 6.96774 18.3065ZM 14.4355 6.96774L 14.4355 4.64516L 13.4355 4.64516L 13.4355 6.96774L 14.4355 6.96774ZM 14.4355 4.64516C 14.4355 3.08695 13.1711 1.82258 11.6129 1.82258L 11.6129 2.82258C 12.6188 2.82258 13.4355 3.63924 13.4355 4.64516L 14.4355 4.64516ZM 11.6129 1.82258L 6.96774 1.82258L 6.96774 2.82258L 11.6129 2.82258L 11.6129 1.82258ZM 7.19135 1.87537L 2.54619 -0.447214L 2.09897 0.447214L 6.74414 2.76979L 7.19135 1.87537ZM 1.82258 0L 1.82258 2.32258L 2.82258 2.32258L 2.82258 0L 1.82258 0ZM 2.32258 1.82258C 0.764374 1.82258 -0.5 3.08695 -0.5 4.64516L 0.5 4.64516C 0.5 3.63924 1.31666 2.82258 2.32258 2.82258L 2.32258 1.82258Z"/>
<path id="path3_stroke" d="M 11.6129 0L 11.6129 -0.5C 11.4803 -0.5 11.3531 -0.447322 11.2593 -0.353553L 11.6129 0ZM 8.51613 3.09677L 8.51613 3.59677C 8.64874 3.59677 8.77592 3.5441 8.86968 3.45033L 8.51613 3.09677ZM 5.41935 3.09677L 5.0658 3.45033C 5.15957 3.5441 5.28675 3.59677 5.41935 3.59677L 5.41935 3.09677ZM 2.32258 0L 2.67613 -0.353553C 2.58237 -0.447322 2.45519 -0.5 2.32258 -0.5L 2.32258 0ZM 13.9355 -0.5L 11.6129 -0.5L 11.6129 0.5L 13.9355 0.5L 13.9355 -0.5ZM 11.2593 -0.353553L 8.16258 2.74322L 8.86968 3.45033L 11.9665 0.353553L 11.2593 -0.353553ZM 8.51613 2.59677L 5.41935 2.59677L 5.41935 3.59677L 8.51613 3.59677L 8.51613 2.59677ZM 5.77291 2.74322L 2.67613 -0.353553L 1.96903 0.353553L 5.0658 3.45033L 5.77291 2.74322ZM 2.32258 -0.5L 0 -0.5L 0 0.5L 2.32258 0.5L 2.32258 -0.5Z"/>
<path id="path4_stroke" d="M -0.5 0L -0.5 1.54839L 0.5 1.54839L 0.5 0L -0.5 0Z"/>
<path id="path5_stroke" d="M 0 0.5L 6.19355 0.5L 6.19355 -0.5L 0 -0.5L 0 0.5Z"/>
<path id="path6_stroke" d="M 12.3871 0L 12.3871 -0.5C 12.111 -0.5 11.8871 -0.276142 11.8871 1.11022e-16L 12.3871 0ZM 12.3871 1.54839L 12.229 2.02273C 12.3815 2.07355 12.5491 2.04798 12.6795 1.95401C 12.8098 1.86003 12.8871 1.70911 12.8871 1.54839L 12.3871 1.54839ZM 7.74194 0L 7.90005 -0.474342C 7.84907 -0.491336 7.79568 -0.5 7.74194 -0.5L 7.74194 0ZM 20.629 8.51613L 20.629 7.74194L 19.629 7.74194L 19.629 8.51613L 20.629 8.51613ZM 20.629 7.74194C 20.629 3.18992 16.9391 -0.5 12.3871 -0.5L 12.3871 0.5C 16.3868 0.5 19.629 3.74221 19.629 7.74194L 20.629 7.74194ZM 11.8871 0L 11.8871 1.54839L 12.8871 1.54839L 12.8871 0L 11.8871 0ZM 12.5452 1.07405L 7.90005 -0.474342L 7.58382 0.474342L 12.229 2.02273L 12.5452 1.07405ZM 7.74194 -0.5C 3.18992 -0.5 -0.5 3.18992 -0.5 7.74194L 0.5 7.74194C 0.5 3.74221 3.74221 0.5 7.74194 0.5L 7.74194 -0.5ZM -0.5 7.74194L -0.5 8.51613L 0.5 8.51613L 0.5 7.74194L -0.5 7.74194Z"/>
<path id="path7_stroke" d="M 4.64516 8.79032C 2.3564 8.79032 0.5 6.93392 0.5 4.64516L -0.5 4.64516C -0.5 7.48621 1.80412 9.79032 4.64516 9.79032L 4.64516 8.79032ZM 0.5 4.64516C 0.5 2.3564 2.3564 0.5 4.64516 0.5L 4.64516 -0.5C 1.80412 -0.5 -0.5 1.80412 -0.5 4.64516L 0.5 4.64516Z"/>
<path id="path8_stroke" d="M 0 9.79032C 2.84105 9.79032 5.14516 7.48621 5.14516 4.64516L 4.14516 4.64516C 4.14516 6.93392 2.28876 8.79032 0 8.79032L 0 9.79032ZM 5.14516 4.64516C 5.14516 1.80412 2.84105 -0.5 0 -0.5L 0 0.5C 2.28876 0.5 4.14516 2.3564 4.14516 4.64516L 5.14516 4.64516Z"/>
<path id="path9_stroke" d="M 11.1129 0L 11.1129 3.09677L 12.1129 3.09677L 12.1129 0L 11.1129 0ZM 11.1129 3.09677C 11.1129 3.67534 10.6431 4.14516 10.0645 4.14516L 10.0645 5.14516C 11.1954 5.14516 12.1129 4.22763 12.1129 3.09677L 11.1129 3.09677ZM 10.0645 4.14516L 1.54839 4.14516L 1.54839 5.14516L 10.0645 5.14516L 10.0645 4.14516ZM 1.54839 4.14516C 0.96982 4.14516 0.5 3.67534 0.5 3.09677L -0.5 3.09677C -0.5 4.22763 0.417535 5.14516 1.54839 5.14516L 1.54839 4.14516Z"/>
<path id="path10_stroke" d="M 24 48.5C 37.531 48.5 48.5 37.531 48.5 24L 47.5 24C 47.5 36.9787 36.9787 47.5 24 47.5L 24 48.5ZM 48.5 24C 48.5 10.469 37.531 -0.5 24 -0.5L 24 0.5C 36.9787 0.5 47.5 11.0213 47.5 24L 48.5 24ZM 24 -0.5C 10.469 -0.5 -0.5 10.469 -0.5 24L 0.5 24C 0.5 11.0213 11.0213 0.5 24 0.5L 24 -0.5ZM -0.5 24C -0.5 37.531 10.469 48.5 24 48.5L 24 47.5C 11.0213 47.5 0.5 36.9787 0.5 24L -0.5 24Z"/>
</defs>
</svg>
